[gd_scene load_steps=2 format=2]

[ext_resource path="res://UI/queued_player.gd" type="Script" id=1]

[node name="QueuedPlayer" type="HBoxContainer"]
anchor_right = 1.0
anchor_bottom = 1.0
script = ExtResource( 1 )
__meta__ = {
"_edit_use_anchors_": false
}

[node name="Name" type="Label" parent="."]
margin_top = 353.0
margin_bottom = 367.0

[node name="ReadyStatus" type="Label" parent="."]
margin_left = 4.0
margin_top = 353.0
margin_right = 69.0
margin_bottom = 367.0
text = "Not Ready"
